EDA: Salaries of MLB Batters from 1985 to 2020
…
df

## # A tibble: 57,105 x 29
##    playerseasonID playerID yearID teamID stint lgID  postseason postseason_app
##    <chr>          <chr>     <dbl> <chr>  <dbl> <chr> <chr>      <chr>         
##  1 1985_barkele0~ barkele~   1985 ATL        1 NL    N          N             
##  2 1985_bedrost0~ bedrost~   1985 ATL        1 NL    N          N             
##  3 1985_benedbr0~ benedbr~   1985 ATL        1 NL    N          N             
##  4 1985_campri01~ campri01   1985 ATL        1 NL    N          N             
##  5 1985_ceronri0~ ceronri~   1985 ATL        1 NL    N          N             
##  6 1985_chambch0~ chambch~   1985 ATL        1 NL    N          N             
##  7 1985_dedmoje0~ dedmoje~   1985 ATL        1 NL    N          N             
##  8 1985_forstte0~ forstte~   1985 ATL        1 NL    N          N             
##  9 1985_garbege0~ garbege~   1985 ATL        1 NL    N          N             
## 10 1985_harpete0~ harpete~   1985 ATL        1 NL    N          N             
## # ... with 57,095 more rows, and 21 more variables: round <chr>, G <dbl>,
## #   AB <dbl>, BA <dbl>, Kperc <dbl>, R <dbl>, H <dbl>, `2B` <dbl>, `3B` <dbl>,
## #   HR <dbl>, RBI <dbl>, SB <dbl>, CS <dbl>, BB <dbl>, SO <dbl>, IBB <dbl>,
## #   HBP <dbl>, SH <dbl>, SF <dbl>, GIDP <dbl>, salary <dbl>
…
